\relax 
\providecommand\hyper@newdestlabel[2]{}
\catcode `"\active 
\catcode `<\active 
\catcode `>\active 
\@nameuse{es@quoting}
\providecommand\HyperFirstAtBeginDocument{\AtBeginDocument}
\HyperFirstAtBeginDocument{\ifx\hyper@anchor\@undefined
\global\let\oldcontentsline\contentsline
\gdef\contentsline#1#2#3#4{\oldcontentsline{#1}{#2}{#3}}
\global\let\oldnewlabel\newlabel
\gdef\newlabel#1#2{\newlabelxx{#1}#2}
\gdef\newlabelxx#1#2#3#4#5#6{\oldnewlabel{#1}{{#2}{#3}}}
\AtEndDocument{\ifx\hyper@anchor\@undefined
\let\contentsline\oldcontentsline
\let\newlabel\oldnewlabel
\fi}
\fi}
\global\let\hyper@last\relax 
\gdef\HyperFirstAtBeginDocument#1{#1}
\providecommand\HyField@AuxAddToFields[1]{}
\providecommand\HyField@AuxAddToCoFields[2]{}
\select@language{spanish}
\@writefile{toc}{\select@language{spanish}}
\@writefile{lof}{\select@language{spanish}}
\@writefile{lot}{\select@language{spanish}}
\select@language{spanish}
\@writefile{toc}{\select@language{spanish}}
\@writefile{lof}{\select@language{spanish}}
\@writefile{lot}{\select@language{spanish}}
\select@language{spanish}
\@writefile{toc}{\select@language{spanish}}
\@writefile{lof}{\select@language{spanish}}
\@writefile{lot}{\select@language{spanish}}
\select@language{catalan}
\@writefile{toc}{\select@language{catalan}}
\@writefile{lof}{\select@language{catalan}}
\@writefile{lot}{\select@language{catalan}}
\select@language{spanish}
\@writefile{toc}{\select@language{spanish}}
\@writefile{lof}{\select@language{spanish}}
\@writefile{lot}{\select@language{spanish}}
\select@language{english}
\@writefile{toc}{\select@language{english}}
\@writefile{lof}{\select@language{english}}
\@writefile{lot}{\select@language{english}}
\select@language{spanish}
\@writefile{toc}{\select@language{spanish}}
\@writefile{lof}{\select@language{spanish}}
\@writefile{lot}{\select@language{spanish}}
\@writefile{toc}{\contentsline {chapter}{\'{I}ndice general}{\es@scroman  {v}}{section*.1}}
\citation{Arduino}
\citation{Arduino}
\citation{FlyPort}
\@writefile{toc}{\contentsline {chapter}{\'{I}ndice de figuras}{\es@scroman  {vii}}{section*.2}}
\@writefile{toc}{\noindent \hrulefill \par }
\@writefile{toc}{\contentsline {chapter}{Listings}{\es@scroman  {ix}}{section*.3}}
\@writefile{toc}{\contentsline {chapter}{\numberline {1}Introducci\IeC {\'o}n}{1}{chapter.1}}
\@writefile{lof}{\addvspace {10\p@ }}
\@writefile{lot}{\addvspace {10\p@ }}
\@writefile{loa}{\addvspace {10\p@ }}
\@writefile{loq}{\addvspace {10\p@ }}
\@writefile{toc}{\contentsline {section}{\numberline {1.1}Objetivos}{1}{section.1.1}}
\@writefile{toc}{\contentsline {chapter}{\numberline {2}Estudio del estado del arte}{3}{chapter.2}}
\@writefile{lof}{\addvspace {10\p@ }}
\@writefile{lot}{\addvspace {10\p@ }}
\@writefile{loa}{\addvspace {10\p@ }}
\@writefile{loq}{\addvspace {10\p@ }}
\@writefile{toc}{\contentsline {section}{\numberline {2.1}\IeC {\textquestiondown }Por qu\IeC {\'e} Arduino?}{3}{section.2.1}}
\@writefile{lot}{\contentsline {table}{\numberline {2.1}{\ignorespaces Consumo de los diferentes dispositivos\relax }}{3}{table.2.1}}
\newlabel{tab:table1}{{2.1}{3}{Consumo de los diferentes dispositivos\relax }{table.2.1}{}}
\@writefile{toc}{\contentsline {section}{\numberline {2.2}Presupuesto}{4}{section.2.2}}
\citation{bitbucket}
\citation{git}
\@writefile{toc}{\contentsline {section}{\numberline {2.3}Gesti\IeC {\'o}n del proyecto}{5}{section.2.3}}
\@writefile{toc}{\contentsline {subsection}{\numberline {2.3.1}\textit  {Bitbucket y SourceTree}}{5}{subsection.2.3.1}}
\@writefile{lof}{\contentsline {figure}{\numberline {2.1}{\ignorespaces Gestion de proyectos con \textit  {SourceTree}\relax }}{6}{figure.caption.4}}
\providecommand*\caption@xref[2]{\@setref\relax\@undefined{#1}}
\newlabel{fig:stree}{{2.1}{6}{Gestion de proyectos con \textit {SourceTree}\relax }{figure.caption.4}{}}
\@writefile{toc}{\contentsline {chapter}{\numberline {3}Descripci\IeC {\'o}n del proyecto}{7}{chapter.3}}
\@writefile{lof}{\addvspace {10\p@ }}
\@writefile{lot}{\addvspace {10\p@ }}
\@writefile{loa}{\addvspace {10\p@ }}
\@writefile{loq}{\addvspace {10\p@ }}
\@writefile{toc}{\contentsline {section}{\numberline {3.1}Tecnolog\IeC {\'\i }as utilizadas}{7}{section.3.1}}
\@writefile{toc}{\contentsline {subsection}{\numberline {3.1.1}Arduino}{7}{subsection.3.1.1}}
\citation{NEO6mv2}
\@writefile{lof}{\contentsline {figure}{\numberline {3.1}{\ignorespaces Esquema que representa la estructura de conexiones de Arduino\relax }}{8}{figure.caption.5}}
\newlabel{fig:ardulogo}{{3.1}{8}{Esquema que representa la estructura de conexiones de Arduino\relax }{figure.caption.5}{}}
\@writefile{toc}{\contentsline {subsection}{\numberline {3.1.2}GPS y NMEA Data}{8}{subsection.3.1.2}}
\@writefile{toc}{\contentsline {subsubsection}{Formato del NMEA Data}{8}{subsubsection*.6}}
\newlabel{gpsconf}{{3.1}{9}{Configuración manual del módulo Neo6Mv2}{lstlisting.3.1}{}}
\@writefile{lol}{\contentsline {lstlisting}{\numberline {3.1}Configuraci\IeC {\'o}n manual del m\IeC {\'o}dulo Neo6Mv2}{9}{lstlisting.3.1}}
\newlabel{gpsnocon}{{3.2}{9}{Cadenas NMEA sin Conexión}{lstlisting.3.2}{}}
\@writefile{lol}{\contentsline {lstlisting}{\numberline {3.2}Cadenas NMEA sin Conexi\IeC {\'o}n}{9}{lstlisting.3.2}}
\newlabel{gpscon}{{3.3}{9}{Cadenas NMEA con Conexión}{lstlisting.3.3}{}}
\@writefile{lol}{\contentsline {lstlisting}{\numberline {3.3}Cadenas NMEA con Conexi\IeC {\'o}n}{9}{lstlisting.3.3}}
\@writefile{toc}{\contentsline {subsection}{\numberline {3.1.3}Laravel}{9}{subsection.3.1.3}}
\@writefile{lof}{\contentsline {figure}{\numberline {3.2}{\ignorespaces Estructura MVC de Laravel 5\relax }}{10}{figure.caption.7}}
\newlabel{fig:laralogo}{{3.2}{10}{Estructura MVC de Laravel 5\relax }{figure.caption.7}{}}
\newlabel{larahello}{{3.4}{10}{Ejemplo de 'Hola mundo' en Laravel5}{lstlisting.3.4}{}}
\@writefile{lol}{\contentsline {lstlisting}{\numberline {3.4}Ejemplo de 'Hola mundo' en Laravel5}{10}{lstlisting.3.4}}
\@writefile{toc}{\contentsline {subsection}{\numberline {3.1.4}MySQL}{10}{subsection.3.1.4}}
\@writefile{toc}{\contentsline {subsection}{\numberline {3.1.5}Maps, Bootstrap y Chart.js}{10}{subsection.3.1.5}}
\newlabel{bootej}{{3.5}{11}{Ejemplo de implementación en Bootstrap}{lstlisting.3.5}{}}
\@writefile{lol}{\contentsline {lstlisting}{\numberline {3.5}Ejemplo de implementaci\IeC {\'o}n en Bootstrap}{11}{lstlisting.3.5}}
\newlabel{chartjsej}{{3.6}{11}{Ejemplo de implementación de una gráfica con chart.js}{lstlisting.3.6}{}}
\@writefile{lol}{\contentsline {lstlisting}{\numberline {3.6}Ejemplo de implementaci\IeC {\'o}n de una gr\IeC {\'a}fica con chart.js}{11}{lstlisting.3.6}}
\@writefile{lof}{\contentsline {figure}{\numberline {3.3}{\ignorespaces Ejemplo de una gr\IeC {\'a}fica con \textit  {Chart.js}\relax }}{11}{figure.caption.8}}
\newlabel{fig:chartej}{{3.3}{11}{Ejemplo de una gráfica con \textit {Chart.js}\relax }{figure.caption.8}{}}
\newlabel{mapsej}{{3.7}{12}{Ejemplo de implementación de un mapa con la API de Google Maps}{lstlisting.3.7}{}}
\@writefile{lol}{\contentsline {lstlisting}{\numberline {3.7}Ejemplo de implementaci\IeC {\'o}n de un mapa con la API de Google Maps}{12}{lstlisting.3.7}}
\@writefile{toc}{\contentsline {chapter}{\numberline {4}Montaje del Hardware y del Servicio Web}{13}{chapter.4}}
\@writefile{lof}{\addvspace {10\p@ }}
\@writefile{lot}{\addvspace {10\p@ }}
\@writefile{loa}{\addvspace {10\p@ }}
\@writefile{loq}{\addvspace {10\p@ }}
\@writefile{lof}{\contentsline {figure}{\numberline {4.1}{\ignorespaces Diagrama de montaje del proyecto\relax }}{13}{figure.caption.9}}
\newlabel{fig:imgmontage1}{{4.1}{13}{Diagrama de montaje del proyecto\relax }{figure.caption.9}{}}
\citation{Arduino}
\citation{Arduino}
\citation{Arduino}
\citation{Arduino}
\@writefile{toc}{\contentsline {section}{\numberline {4.1}Material}{14}{section.4.1}}
\@writefile{lof}{\contentsline {figure}{\numberline {4.2}{\ignorespaces Microcontroladora Arduino DUE \cite  {Arduino}\relax }}{14}{figure.caption.10}}
\newlabel{fig:imgdue}{{4.2}{14}{Microcontroladora Arduino DUE \cite {Arduino}\relax }{figure.caption.10}{}}
\@writefile{lof}{\contentsline {figure}{\numberline {4.3}{\ignorespaces Ethernet shield \cite  {Arduino}\relax }}{14}{figure.caption.11}}
\newlabel{fig:imgethshi}{{4.3}{14}{Ethernet shield \cite {Arduino}\relax }{figure.caption.11}{}}
\@writefile{lof}{\contentsline {figure}{\numberline {4.4}{\ignorespaces M\IeC {\'o}dulo GPS Neo6mv2\relax }}{15}{figure.caption.12}}
\newlabel{fig:dht11}{{4.4}{15}{Módulo GPS Neo6mv2\relax }{figure.caption.12}{}}
\@writefile{lof}{\contentsline {figure}{\numberline {4.5}{\ignorespaces Sensor de temperatura y humedad DHT11\relax }}{15}{figure.caption.13}}
\newlabel{fig:dht11}{{4.5}{15}{Sensor de temperatura y humedad DHT11\relax }{figure.caption.13}{}}
\@writefile{lof}{\contentsline {figure}{\numberline {4.6}{\ignorespaces Sensor de mesura de Gas CO MQ-7\relax }}{16}{figure.caption.14}}
\newlabel{fig:dht11}{{4.6}{16}{Sensor de mesura de Gas CO MQ-7\relax }{figure.caption.14}{}}
\newlabel{f:luz}{{4.7a}{16}{Subfigure 4 4.7a}{subfigure.4.7.1}{}}
\newlabel{sub@f:luz}{{(a)}{a}{Subfigure 4 4.7a\relax }{subfigure.4.7.1}{}}
\newlabel{f:ruido}{{4.7b}{16}{Subfigure 4 4.7b}{subfigure.4.7.2}{}}
\newlabel{sub@f:ruido}{{(b)}{b}{Subfigure 4 4.7b\relax }{subfigure.4.7.2}{}}
\@writefile{lof}{\contentsline {figure}{\numberline {4.7}{\ignorespaces Sensor de luminosidad y ruido\relax }}{16}{figure.caption.15}}
\newlabel{f:sensores}{{4.7}{16}{Sensor de luminosidad y ruido\relax }{figure.caption.15}{}}
\@writefile{lof}{\contentsline {subfigure}{\numberline{(a)}{\ignorespaces {Sensor de luz}}}{16}{subfigure.7.1}}
\@writefile{lof}{\contentsline {subfigure}{\numberline{(b)}{\ignorespaces {Sensor de Ruido}}}{16}{subfigure.7.2}}
\@writefile{lof}{\contentsline {figure}{\numberline {4.8}{\ignorespaces Ventana de la aplicaci\IeC {\'o}n MAMP\relax }}{17}{figure.caption.16}}
\newlabel{fig:mamp}{{4.8}{17}{Ventana de la aplicación MAMP\relax }{figure.caption.16}{}}
\@writefile{lof}{\contentsline {figure}{\numberline {4.9}{\ignorespaces Ventana de la aplicaci\IeC {\'o}n PHPStorm\relax }}{17}{figure.caption.17}}
\newlabel{fig:mamp}{{4.9}{17}{Ventana de la aplicación PHPStorm\relax }{figure.caption.17}{}}
\@writefile{toc}{\contentsline {section}{\numberline {4.2}Montaje del Nodo Arduino DUE}{18}{section.4.2}}
\@writefile{lof}{\contentsline {figure}{\numberline {4.10}{\ignorespaces Esquema del montaje del Nodo\relax }}{18}{figure.caption.18}}
\newlabel{fig:imgdue}{{4.10}{18}{Esquema del montaje del Nodo\relax }{figure.caption.18}{}}
\@writefile{lof}{\contentsline {figure}{\numberline {4.11}{\ignorespaces Esquema del circuito para el GPS en el Arduino UNO\relax }}{19}{figure.caption.19}}
\newlabel{fig:imgunogps}{{4.11}{19}{Esquema del circuito para el GPS en el Arduino UNO\relax }{figure.caption.19}{}}
\@writefile{lof}{\contentsline {figure}{\numberline {4.12}{\ignorespaces Montaje final del nodo de sensores\relax }}{19}{figure.caption.20}}
\newlabel{fig:montfin}{{4.12}{19}{Montaje final del nodo de sensores\relax }{figure.caption.20}{}}
\@writefile{toc}{\contentsline {section}{\numberline {4.3}Programaci\IeC {\'o}n de la Microcontroladora Arduino DUE}{20}{section.4.3}}
\newlabel{boardscode}{{4.1}{20}{Código de la Controladora Arduino Due}{lstlisting.4.1}{}}
\@writefile{lol}{\contentsline {lstlisting}{\numberline {4.1}C\IeC {\'o}digo de la Controladora Arduino Due}{20}{lstlisting.4.1}}
\newlabel{boardconf}{{4.2}{22}{Configuración de la Controladora Arduino Due}{lstlisting.4.2}{}}
\@writefile{lol}{\contentsline {lstlisting}{\numberline {4.2}Configuraci\IeC {\'o}n de la Controladora Arduino Due}{22}{lstlisting.4.2}}
\newlabel{networkcon}{{4.3}{23}{Conexión a la Red}{lstlisting.4.3}{}}
\@writefile{lol}{\contentsline {lstlisting}{\numberline {4.3}Conexi\IeC {\'o}n a la Red}{23}{lstlisting.4.3}}
\newlabel{codeloop}{{4.4}{23}{Función \textit {LOOP} del código}{lstlisting.4.4}{}}
\@writefile{lol}{\contentsline {lstlisting}{\numberline {4.4}Funci\IeC {\'o}n \textit  {LOOP} del c\IeC {\'o}digo}{23}{lstlisting.4.4}}
\newlabel{gpscon1}{{4.5}{24}{Lectura en crudo del GPS}{lstlisting.4.5}{}}
\@writefile{lol}{\contentsline {lstlisting}{\numberline {4.5}Lectura en crudo del GPS}{24}{lstlisting.4.5}}
\newlabel{gpscon2}{{4.6}{24}{Traducción y depuración de los datos del GPS}{lstlisting.4.6}{}}
\@writefile{lol}{\contentsline {lstlisting}{\numberline {4.6}Traducci\IeC {\'o}n y depuraci\IeC {\'o}n de los datos del GPS}{24}{lstlisting.4.6}}
\@writefile{lof}{\contentsline {figure}{\numberline {4.13}{\ignorespaces Terminal serie de Arduino y env\IeC {\'\i }o de la petici\IeC {\'o}n GET\relax }}{24}{figure.caption.21}}
\newlabel{fig:ardusend}{{4.13}{24}{Terminal serie de Arduino y envío de la petición GET\relax }{figure.caption.21}{}}
\newlabel{formatstring}{{4.7}{25}{Formato de la String que se enviará}{lstlisting.4.7}{}}
\@writefile{lol}{\contentsline {lstlisting}{\numberline {4.7}Formato de la String que se enviar\IeC {\'a}}{25}{lstlisting.4.7}}
\newlabel{datelcom}{{4.8}{25}{Funciones de recogida de datos}{lstlisting.4.8}{}}
\@writefile{lol}{\contentsline {lstlisting}{\numberline {4.8}Funciones de recogida de datos}{25}{lstlisting.4.8}}
\newlabel{comunicacion}{{4.9}{26}{Función de comunicación con el servidor}{lstlisting.4.9}{}}
\@writefile{lol}{\contentsline {lstlisting}{\numberline {4.9}Funci\IeC {\'o}n de comunicaci\IeC {\'o}n con el servidor}{26}{lstlisting.4.9}}
\newlabel{getstring}{{4.10}{26}{Formato de la String GET}{lstlisting.4.10}{}}
\@writefile{lol}{\contentsline {lstlisting}{\numberline {4.10}Formato de la String GET}{26}{lstlisting.4.10}}
\newlabel{getstring}{{4.11}{26}{Controlador que almacena la String en la BD}{lstlisting.4.11}{}}
\@writefile{lol}{\contentsline {lstlisting}{\numberline {4.11}Controlador que almacena la String en la BD}{26}{lstlisting.4.11}}
\@writefile{lof}{\contentsline {figure}{\numberline {4.14}{\ignorespaces String JSON generada por la petici\IeC {\'o}n GET de Arduino\relax }}{26}{figure.caption.22}}
\newlabel{fig:montfin}{{4.14}{26}{String JSON generada por la petición GET de Arduino\relax }{figure.caption.22}{}}
\@writefile{toc}{\contentsline {section}{\numberline {4.4}Instalaci\IeC {\'o}n del Servicio WEB}{27}{section.4.4}}
\@writefile{toc}{\contentsline {subsection}{\numberline {4.4.1}Instalaci\IeC {\'o}n en MacOSX}{27}{subsection.4.4.1}}
\@writefile{lof}{\contentsline {figure}{\numberline {4.15}{\ignorespaces Configuraci\IeC {\'o}n del Servidor MAMP\relax }}{27}{figure.caption.23}}
\newlabel{fig:confmamp}{{4.15}{27}{Configuración del Servidor MAMP\relax }{figure.caption.23}{}}
\newlabel{laraBD}{{4.12}{27}{Configuración de la BD en Laravel}{lstlisting.4.12}{}}
\@writefile{lol}{\contentsline {lstlisting}{\numberline {4.12}Configuraci\IeC {\'o}n de la BD en Laravel}{27}{lstlisting.4.12}}
\newlabel{phpmigrate}{{4.13}{28}{Migración en OSX}{lstlisting.4.13}{}}
\@writefile{lol}{\contentsline {lstlisting}{\numberline {4.13}Migraci\IeC {\'o}n en OSX}{28}{lstlisting.4.13}}
\@writefile{toc}{\contentsline {subsection}{\numberline {4.4.2}Instalaci\IeC {\'o}n en Linux}{28}{subsection.4.4.2}}
\newlabel{apachelinux}{{4.14}{28}{Instalación del Servicio Apache en Linux}{lstlisting.4.14}{}}
\@writefile{lol}{\contentsline {lstlisting}{\numberline {4.14}Instalaci\IeC {\'o}n del Servicio Apache en Linux}{28}{lstlisting.4.14}}
\newlabel{apachelinux2}{{4.15}{28}{Asignación de directorio}{lstlisting.4.15}{}}
\@writefile{lol}{\contentsline {lstlisting}{\numberline {4.15}Asignaci\IeC {\'o}n de directorio}{28}{lstlisting.4.15}}
\newlabel{debphpmigrate}{{4.16}{28}{Migración en Debian}{lstlisting.4.16}{}}
\@writefile{lol}{\contentsline {lstlisting}{\numberline {4.16}Migraci\IeC {\'o}n en Debian}{28}{lstlisting.4.16}}
\@writefile{toc}{\contentsline {chapter}{\numberline {5}Explicaci\IeC {\'o}n de la aplicaci\IeC {\'o}n}{29}{chapter.5}}
\@writefile{lof}{\addvspace {10\p@ }}
\@writefile{lot}{\addvspace {10\p@ }}
\@writefile{loa}{\addvspace {10\p@ }}
\@writefile{loq}{\addvspace {10\p@ }}
\@writefile{lof}{\contentsline {figure}{\numberline {5.1}{\ignorespaces Esquema del funcionamiento de la aplicaci\IeC {\'o}n\relax }}{29}{figure.caption.24}}
\newlabel{fig:montaje2}{{5.1}{29}{Esquema del funcionamiento de la aplicación\relax }{figure.caption.24}{}}
\@writefile{toc}{\contentsline {section}{\numberline {5.1}Gesti\IeC {\'o}n de la informaci\IeC {\'o}n}{30}{section.5.1}}
\@writefile{lof}{\contentsline {figure}{\numberline {5.2}{\ignorespaces Diagrama Entidad-Relaci\IeC {\'o}n de la base de datos\relax }}{30}{figure.caption.25}}
\newlabel{fig:bd1}{{5.2}{30}{Diagrama Entidad-Relación de la base de datos\relax }{figure.caption.25}{}}
\newlabel{migration}{{5.1}{30}{Migración de la base de datos}{lstlisting.5.1}{}}
\@writefile{lol}{\contentsline {lstlisting}{\numberline {5.1}Migraci\IeC {\'o}n de la base de datos}{30}{lstlisting.5.1}}
\@writefile{toc}{\contentsline {section}{\numberline {5.2}Gesti\IeC {\'o}n del \textit  {NodeTracker}}{31}{section.5.2}}
\@writefile{lof}{\contentsline {figure}{\numberline {5.3}{\ignorespaces Login del \textit  {NodeTracker}\relax }}{31}{figure.caption.26}}
\newlabel{fig:loginnode}{{5.3}{31}{Login del \textit {NodeTracker}\relax }{figure.caption.26}{}}
\@writefile{lof}{\contentsline {figure}{\numberline {5.4}{\ignorespaces Home del \textit  {NodeTracker}\relax }}{31}{figure.caption.27}}
\newlabel{fig:homenode}{{5.4}{31}{Home del \textit {NodeTracker}\relax }{figure.caption.27}{}}
\@writefile{lof}{\contentsline {figure}{\numberline {5.5}{\ignorespaces Formulario de edici\IeC {\'o}n de usuarios del \textit  {NodeTracker}.\relax }}{32}{figure.caption.28}}
\newlabel{fig:editusernode}{{5.5}{32}{Formulario de edición de usuarios del \textit {NodeTracker}.\relax }{figure.caption.28}{}}
\@writefile{lof}{\contentsline {figure}{\numberline {5.6}{\ignorespaces Formulario para a\IeC {\~n}adir un nuevo nodo al sistema.\relax }}{32}{figure.caption.29}}
\newlabel{fig:addnode}{{5.6}{32}{Formulario para añadir un nuevo nodo al sistema.\relax }{figure.caption.29}{}}
\@writefile{lof}{\contentsline {figure}{\numberline {5.7}{\ignorespaces Lista de nodos disponibles\relax }}{32}{figure.caption.30}}
\newlabel{fig:nodelist}{{5.7}{32}{Lista de nodos disponibles\relax }{figure.caption.30}{}}
\@writefile{toc}{\contentsline {section}{\numberline {5.3}Visualizaci\IeC {\'o}n de la informaci\IeC {\'o}n}{33}{section.5.3}}
\@writefile{lof}{\contentsline {figure}{\numberline {5.8}{\ignorespaces Pagina de monitorizaci\IeC {\'o}n de la aplicaci\IeC {\'o}n\relax }}{33}{figure.caption.31}}
\newlabel{fig:nodereport}{{5.8}{33}{Pagina de monitorización de la aplicación\relax }{figure.caption.31}{}}
\@writefile{toc}{\contentsline {subsection}{\numberline {5.3.1}Posicionamiento}{33}{subsection.5.3.1}}
\@writefile{lof}{\contentsline {figure}{\numberline {5.9}{\ignorespaces Mapa de la posici\IeC {\'o}n del nodo.\relax }}{33}{figure.caption.32}}
\newlabel{fig:mapimg}{{5.9}{33}{Mapa de la posición del nodo.\relax }{figure.caption.32}{}}
\citation{ajax}
\@writefile{toc}{\contentsline {subsection}{\numberline {5.3.2}Generar un informe}{34}{subsection.5.3.2}}
\@writefile{lof}{\contentsline {figure}{\numberline {5.10}{\ignorespaces Generaci\IeC {\'o}n de informes\relax }}{34}{figure.caption.33}}
\newlabel{fig:nodereport}{{5.10}{34}{Generación de informes\relax }{figure.caption.33}{}}
\@writefile{toc}{\contentsline {subsection}{\numberline {5.3.3}Seguimiento de la informaci\IeC {\'o}n}{34}{subsection.5.3.3}}
\newlabel{graficsel}{{5.2}{34}{Selector de Graficos}{lstlisting.5.2}{}}
\@writefile{lol}{\contentsline {lstlisting}{\numberline {5.2}Selector de Graficos}{34}{lstlisting.5.2}}
\@writefile{lof}{\contentsline {figure}{\numberline {5.11}{\ignorespaces Gr\IeC {\'a}fica perteneciente a la temperatura en el seguimiento\relax }}{35}{figure.caption.34}}
\newlabel{fig:nodereport}{{5.11}{35}{Gráfica perteneciente a la temperatura en el seguimiento\relax }{figure.caption.34}{}}
\@writefile{lof}{\contentsline {figure}{\numberline {5.12}{\ignorespaces Gr\IeC {\'a}fica perteneciente a la contaminaci\IeC {\'o}n por CO en el seguimiento\relax }}{35}{figure.caption.35}}
\newlabel{fig:nodereport}{{5.12}{35}{Gráfica perteneciente a la contaminación por CO en el seguimiento\relax }{figure.caption.35}{}}
\@writefile{lof}{\contentsline {figure}{\numberline {5.13}{\ignorespaces Gr\IeC {\'a}fica perteneciente a la Temperatura (\textit  {versi\IeC {\'o}n antigua Chart.js)}\relax }}{36}{figure.caption.36}}
\newlabel{fig:nodereport}{{5.13}{36}{Gráfica perteneciente a la Temperatura (\textit {versión antigua Chart.js)}\relax }{figure.caption.36}{}}
\citation{mitm}
\@writefile{toc}{\contentsline {chapter}{\numberline {6}Conclusiones y mejoras}{37}{chapter.6}}
\@writefile{lof}{\addvspace {10\p@ }}
\@writefile{lot}{\addvspace {10\p@ }}
\@writefile{loa}{\addvspace {10\p@ }}
\@writefile{loq}{\addvspace {10\p@ }}
\@writefile{toc}{\contentsline {section}{\numberline {6.1}Seguridad}{37}{section.6.1}}
\@writefile{toc}{\contentsline {section}{\numberline {6.2}Sensores}{37}{section.6.2}}
\citation{FlyPort}
\citation{FlyPort}
\@writefile{toc}{\contentsline {section}{\numberline {6.3}Boards especializadas}{38}{section.6.3}}
\@writefile{lof}{\contentsline {figure}{\numberline {6.1}{\ignorespaces FlyPort GPRS y la placa para la controladora.\cite  {FlyPort}\relax }}{38}{figure.caption.37}}
\newlabel{fig:flyportimg}{{6.1}{38}{FlyPort GPRS y la placa para la controladora.\cite {FlyPort}\relax }{figure.caption.37}{}}
\bibcite{arduinoethernet}{1}
\bibcite{Arduino}{2}
\bibcite{NEO6mv2}{3}
\bibcite{DHT11}{4}
\bibcite{LM393 y MQ-7 Sensor CO}{5}
\bibcite{Laravel 5.2}{6}
\bibcite{MamP}{7}
\bibcite{chart.js}{8}
\bibcite{Maps}{9}
\bibcite{mitm}{10}
\@writefile{toc}{\contentsline {chapter}{Bibliograf\'{\i }a}{39}{chapter*.38}}
\bibcite{FlyPort}{11}
\bibcite{bitbucket}{12}
\bibcite{ajax}{13}
\bibcite{git}{14}
\setcounter {appendix}{2}
