\BOOKMARK [0][-]{section*.1}{\315ndice general}{}% 1
\BOOKMARK [0][-]{section*.2}{\315ndice de figuras}{}% 2
\BOOKMARK [0][-]{section*.3}{Listings}{}% 3
\BOOKMARK [0][-]{chapter.1}{Introducci\363n}{}% 4
\BOOKMARK [1][-]{section.1.1}{Objetivos}{chapter.1}% 5
\BOOKMARK [0][-]{chapter.2}{Estudio del estado del arte}{}% 6
\BOOKMARK [1][-]{section.2.1}{\277Por qu\351 Arduino?}{chapter.2}% 7
\BOOKMARK [1][-]{section.2.2}{Presupuesto}{chapter.2}% 8
\BOOKMARK [1][-]{section.2.3}{Gesti\363n del proyecto}{chapter.2}% 9
\BOOKMARK [2][-]{subsection.2.3.1}{Bitbucket y SourceTree}{section.2.3}% 10
\BOOKMARK [0][-]{chapter.3}{Descripci\363n del proyecto}{}% 11
\BOOKMARK [1][-]{section.3.1}{Tecnolog\355as utilizadas}{chapter.3}% 12
\BOOKMARK [2][-]{subsection.3.1.1}{Arduino}{section.3.1}% 13
\BOOKMARK [2][-]{subsection.3.1.2}{GPS y NMEA Data}{section.3.1}% 14
\BOOKMARK [2][-]{subsection.3.1.3}{Laravel}{section.3.1}% 15
\BOOKMARK [2][-]{subsection.3.1.4}{MySQL}{section.3.1}% 16
\BOOKMARK [2][-]{subsection.3.1.5}{Maps, Bootstrap y Chart.js}{section.3.1}% 17
\BOOKMARK [0][-]{chapter.4}{Montaje del Hardware y del Servicio Web}{}% 18
\BOOKMARK [1][-]{section.4.1}{Material}{chapter.4}% 19
\BOOKMARK [1][-]{section.4.2}{Montaje del Nodo Arduino DUE}{chapter.4}% 20
\BOOKMARK [1][-]{section.4.3}{Programaci\363n de la Microcontroladora Arduino DUE}{chapter.4}% 21
\BOOKMARK [1][-]{section.4.4}{Instalaci\363n del Servicio WEB}{chapter.4}% 22
\BOOKMARK [2][-]{subsection.4.4.1}{Instalaci\363n en MacOSX}{section.4.4}% 23
\BOOKMARK [2][-]{subsection.4.4.2}{Instalaci\363n en Linux}{section.4.4}% 24
\BOOKMARK [0][-]{chapter.5}{Explicaci\363n de la aplicaci\363n}{}% 25
\BOOKMARK [1][-]{section.5.1}{Gesti\363n de la informaci\363n}{chapter.5}% 26
\BOOKMARK [1][-]{section.5.2}{Gesti\363n del NodeTracker}{chapter.5}% 27
\BOOKMARK [1][-]{section.5.3}{Visualizaci\363n de la informaci\363n}{chapter.5}% 28
\BOOKMARK [2][-]{subsection.5.3.1}{Posicionamiento}{section.5.3}% 29
\BOOKMARK [2][-]{subsection.5.3.2}{Generar un informe}{section.5.3}% 30
\BOOKMARK [2][-]{subsection.5.3.3}{Seguimiento de la informaci\363n}{section.5.3}% 31
\BOOKMARK [0][-]{chapter.6}{Conclusiones y mejoras}{}% 32
\BOOKMARK [1][-]{section.6.1}{Seguridad}{chapter.6}% 33
\BOOKMARK [1][-]{section.6.2}{Sensores}{chapter.6}% 34
\BOOKMARK [1][-]{section.6.3}{Boards especializadas}{chapter.6}% 35
\BOOKMARK [0][-]{chapter*.38}{Bibliograf\355a}{}% 36
